%YAML 1.1
%TAG !u! tag:unity3d.com,2011:
--- !u!114 &7925637833234488543
MonoBehaviour:
  m_ObjectHideFlags: 0
  m_CorrespondingSourceObject: {fileID: 0}
  m_PrefabInstance: {fileID: 0}
  m_PrefabAsset: {fileID: 0}
  m_GameObject: {fileID: 2400850651212337429}
  m_Enabled: 1
  m_EditorHideFlags: 0
  m_Script: {fileID: 11500000, guid: 4fc661e93ec9dbb47b14e7464c874269, type: 3}
  m_Name: 
  m_EditorClassIdentifier: 
  _animator: {fileID: 5165652366011245134}
  Description: Get stronger with each beat
  _damage: 1
  _damageText: {fileID: 5420449296230262296}
  DamageCap: 15
--- !u!1001 &1505845392823138187
PrefabInstance:
  m_ObjectHideFlags: 0
  serializedVersion: 2
  m_Modification:
    m_TransformParent: {fileID: 0}
    m_Modifications:
    - target: {fileID: 3869821997444195992, guid: 76dd056910b1af94b90d999a05619bc6,
        type: 3}
      propertyPath: m_Sprite
      value: 
      objectReference: {fileID: 21300000, guid: 4d7baa268983e1a48b847b75ba9e9d74,
        type: 3}
    - target: {fileID: 3869821997444195998, guid: 76dd056910b1af94b90d999a05619bc6,
        type: 3}
      propertyPath: m_Name
      value: PatientStrikeCard
      objectReference: {fileID: 0}
    - target: {fileID: 3869821997444195999, guid: 76dd056910b1af94b90d999a05619bc6,
        type: 3}
      propertyPath: m_LocalPosition.x
      value: 0
      objectReference: {fileID: 0}
    - target: {fileID: 3869821997444195999, guid: 76dd056910b1af94b90d999a05619bc6,
        type: 3}
      propertyPath: m_LocalPosition.y
      value: 0
      objectReference: {fileID: 0}
    - target: {fileID: 3869821997444195999, guid: 76dd056910b1af94b90d999a05619bc6,
        type: 3}
      propertyPath: m_LocalPosition.z
      value: 0
      objectReference: {fileID: 0}
    - target: {fileID: 3869821997444195999, guid: 76dd056910b1af94b90d999a05619bc6,
        type: 3}
      propertyPath: m_LocalRotation.x
      value: 0
      objectReference: {fileID: 0}
    - target: {fileID: 3869821997444195999, guid: 76dd056910b1af94b90d999a05619bc6,
        type: 3}
      propertyPath: m_LocalRotation.y
      value: 0
      objectReference: {fileID: 0}
    - target: {fileID: 3869821997444195999, guid: 76dd056910b1af94b90d999a05619bc6,
        type: 3}
      propertyPath: m_LocalRotation.z
      value: 0
      objectReference: {fileID: 0}
    - target: {fileID: 3869821997444195999, guid: 76dd056910b1af94b90d999a05619bc6,
        type: 3}
      propertyPath: m_LocalRotation.w
      value: 1
      objectReference: {fileID: 0}
    - target: {fileID: 3869821997444195999, guid: 76dd056910b1af94b90d999a05619bc6,
        type: 3}
      propertyPath: m_RootOrder
      value: 0
      objectReference: {fileID: 0}
    - target: {fileID: 3869821997444195999, guid: 76dd056910b1af94b90d999a05619bc6,
        type: 3}
      propertyPath: m_LocalEulerAnglesHint.x
      value: 0
      objectReference: {fileID: 0}
    - target: {fileID: 3869821997444195999, guid: 76dd056910b1af94b90d999a05619bc6,
        type: 3}
      propertyPath: m_LocalEulerAnglesHint.y
      value: 0
      objectReference: {fileID: 0}
    - target: {fileID: 3869821997444195999, guid: 76dd056910b1af94b90d999a05619bc6,
        type: 3}
      propertyPath: m_LocalEulerAnglesHint.z
      value: 0
      objectReference: {fileID: 0}
    - target: {fileID: 3869821997444195999, guid: 76dd056910b1af94b90d999a05619bc6,
        type: 3}
      propertyPath: m_AnchoredPosition.x
      value: 0
      objectReference: {fileID: 0}
    - target: {fileID: 3869821997444195999, guid: 76dd056910b1af94b90d999a05619bc6,
        type: 3}
      propertyPath: m_AnchoredPosition.y
      value: 0
      objectReference: {fileID: 0}
    - target: {fileID: 3869821997444195999, guid: 76dd056910b1af94b90d999a05619bc6,
        type: 3}
      propertyPath: m_SizeDelta.x
      value: 200
      objectReference: {fileID: 0}
    - target: {fileID: 3869821997444195999, guid: 76dd056910b1af94b90d999a05619bc6,
        type: 3}
      propertyPath: m_SizeDelta.y
      value: 250
      objectReference: {fileID: 0}
    - target: {fileID: 3869821997444195999, guid: 76dd056910b1af94b90d999a05619bc6,
        type: 3}
      propertyPath: m_AnchorMin.x
      value: 0.5
      objectReference: {fileID: 0}
    - target: {fileID: 3869821997444195999, guid: 76dd056910b1af94b90d999a05619bc6,
        type: 3}
      propertyPath: m_AnchorMin.y
      value: 0.5
      objectReference: {fileID: 0}
    - target: {fileID: 3869821997444195999, guid: 76dd056910b1af94b90d999a05619bc6,
        type: 3}
      propertyPath: m_AnchorMax.x
      value: 0.5
      objectReference: {fileID: 0}
    - target: {fileID: 3869821997444195999, guid: 76dd056910b1af94b90d999a05619bc6,
        type: 3}
      propertyPath: m_AnchorMax.y
      value: 0.5
      objectReference: {fileID: 0}
    - target: {fileID: 3869821997444195999, guid: 76dd056910b1af94b90d999a05619bc6,
        type: 3}
      propertyPath: m_Pivot.x
      value: 0.5
      objectReference: {fileID: 0}
    - target: {fileID: 3869821997444195999, guid: 76dd056910b1af94b90d999a05619bc6,
        type: 3}
      propertyPath: m_Pivot.y
      value: 0.5
      objectReference: {fileID: 0}
    - target: {fileID: 5541513068971542600, guid: 76dd056910b1af94b90d999a05619bc6,
        type: 3}
      propertyPath: Use.m_PersistentCalls.m_Calls.Array.data[0].m_Target
      value: 
      objectReference: {fileID: 7925637833234488543}
    - target: {fileID: 5541513068971542600, guid: 76dd056910b1af94b90d999a05619bc6,
        type: 3}
      propertyPath: Use.m_PersistentCalls.m_Calls.Array.data[0].m_MethodName
      value: PlayCard
      objectReference: {fileID: 0}
    - target: {fileID: 6496394083502117966, guid: 76dd056910b1af94b90d999a05619bc6,
        type: 3}
      propertyPath: m_AnchoredPosition.x
      value: 9
      objectReference: {fileID: 0}
    - target: {fileID: 6496394083502117966, guid: 76dd056910b1af94b90d999a05619bc6,
        type: 3}
      propertyPath: m_SizeDelta.x
      value: 44.774963
      objectReference: {fileID: 0}
    - target: {fileID: 6496394083502117966, guid: 76dd056910b1af94b90d999a05619bc6,
        type: 3}
      propertyPath: m_AnchoredPosition.y
      value: -60.4
      objectReference: {fileID: 0}
    - target: {fileID: 6496394083502117966, guid: 76dd056910b1af94b90d999a05619bc6,
        type: 3}
      propertyPath: m_SizeDelta.y
      value: 45.303337
      objectReference: {fileID: 0}
    - target: {fileID: 6827287380223004926, guid: 76dd056910b1af94b90d999a05619bc6,
        type: 3}
      propertyPath: m_textInfo.characterCount
      value: 14
      objectReference: {fileID: 0}
    - target: {fileID: 6827287380223004926, guid: 76dd056910b1af94b90d999a05619bc6,
        type: 3}
      propertyPath: m_textInfo.wordCount
      value: 2
      objectReference: {fileID: 0}
    - target: {fileID: 6827287380223004926, guid: 76dd056910b1af94b90d999a05619bc6,
        type: 3}
      propertyPath: m_textInfo.lineCount
      value: 1
      objectReference: {fileID: 0}
    - target: {fileID: 6827287380223004926, guid: 76dd056910b1af94b90d999a05619bc6,
        type: 3}
      propertyPath: m_textInfo.pageCount
      value: 1
      objectReference: {fileID: 0}
    - target: {fileID: 6827287380223004926, guid: 76dd056910b1af94b90d999a05619bc6,
        type: 3}
      propertyPath: m_text
      value: Patient Strike
      objectReference: {fileID: 0}
    - target: {fileID: 6827287380223004926, guid: 76dd056910b1af94b90d999a05619bc6,
        type: 3}
      propertyPath: m_textInfo.spaceCount
      value: 1
      objectReference: {fileID: 0}
    - target: {fileID: 6827287380223004926, guid: 76dd056910b1af94b90d999a05619bc6,
        type: 3}
      propertyPath: m_fontSize
      value: 33.5
      objectReference: {fileID: 0}
    - target: {fileID: 6907566913362301331, guid: 76dd056910b1af94b90d999a05619bc6,
        type: 3}
      propertyPath: m_textInfo.characterCount
      value: 2
      objectReference: {fileID: 0}
    - target: {fileID: 6907566913362301331, guid: 76dd056910b1af94b90d999a05619bc6,
        type: 3}
      propertyPath: m_textInfo.wordCount
      value: 1
      objectReference: {fileID: 0}
    - target: {fileID: 6907566913362301331, guid: 76dd056910b1af94b90d999a05619bc6,
        type: 3}
      propertyPath: m_textInfo.lineCount
      value: 1
      objectReference: {fileID: 0}
    - target: {fileID: 6907566913362301331, guid: 76dd056910b1af94b90d999a05619bc6,
        type: 3}
      propertyPath: m_textInfo.pageCount
      value: 1
      objectReference: {fileID: 0}
    - target: {fileID: 6907566913362301331, guid: 76dd056910b1af94b90d999a05619bc6,
        type: 3}
      propertyPath: m_fontSize
      value: 38.5
      objectReference: {fileID: 0}
    - target: {fileID: 6907566913362301331, guid: 76dd056910b1af94b90d999a05619bc6,
        type: 3}
      propertyPath: m_fontAsset
      value: 
      objectReference: {fileID: 11400000, guid: d8085805cd68adf4b833518c48b37deb,
        type: 2}
    - target: {fileID: 6907566913362301331, guid: 76dd056910b1af94b90d999a05619bc6,
        type: 3}
      propertyPath: m_sharedMaterial
      value: 
      objectReference: {fileID: 8159096156951723474, guid: d8085805cd68adf4b833518c48b37deb,
        type: 2}
    - target: {fileID: 6907566913362301331, guid: 76dd056910b1af94b90d999a05619bc6,
        type: 3}
      propertyPath: m_fontColor.r
      value: 0.20000002
      objectReference: {fileID: 0}
    - target: {fileID: 6907566913362301331, guid: 76dd056910b1af94b90d999a05619bc6,
        type: 3}
      propertyPath: m_fontColor.g
      value: 0.2392157
      objectReference: {fileID: 0}
    - target: {fileID: 6907566913362301331, guid: 76dd056910b1af94b90d999a05619bc6,
        type: 3}
      propertyPath: m_fontColor.b
      value: 1
      objectReference: {fileID: 0}
    - target: {fileID: 6907566913362301331, guid: 76dd056910b1af94b90d999a05619bc6,
        type: 3}
      propertyPath: m_fontColor32.rgba
      value: 4294917427
      objectReference: {fileID: 0}
    - target: {fileID: 6907566913362301331, guid: 76dd056910b1af94b90d999a05619bc6,
        type: 3}
      propertyPath: m_text
      value: 10
      objectReference: {fileID: 0}
    m_RemovedComponents:
    - {fileID: 6769357982615921701, guid: 76dd056910b1af94b90d999a05619bc6, type: 3}
  m_SourcePrefab: {fileID: 100100000, guid: 76dd056910b1af94b90d999a05619bc6, type: 3}
--- !u!1 &2400850651212337429 stripped
GameObject:
  m_CorrespondingSourceObject: {fileID: 3869821997444195998, guid: 76dd056910b1af94b90d999a05619bc6,
    type: 3}
  m_PrefabInstance: {fileID: 1505845392823138187}
  m_PrefabAsset: {fileID: 0}
--- !u!95 &5165652366011245134 stripped
Animator:
  m_CorrespondingSourceObject: {fileID: 6004920208708343237, guid: 76dd056910b1af94b90d999a05619bc6,
    type: 3}
  m_PrefabInstance: {fileID: 1505845392823138187}
  m_PrefabAsset: {fileID: 0}
--- !u!114 &5420449296230262296 stripped
MonoBehaviour:
  m_CorrespondingSourceObject: {fileID: 6907566913362301331, guid: 76dd056910b1af94b90d999a05619bc6,
    type: 3}
  m_PrefabInstance: {fileID: 1505845392823138187}
  m_PrefabAsset: {fileID: 0}
  m_GameObject: {fileID: 0}
  m_Enabled: 1
  m_EditorHideFlags: 0
  m_Script: {fileID: 11500000, guid: f4688fdb7df04437aeb418b961361dc5, type: 3}
  m_Name: 
  m_EditorClassIdentifier: 
