%YAML 1.1
%TAG !u! tag:unity3d.com,2011:
--- !u!114 &2182923705062931731
MonoBehaviour:
  m_ObjectHideFlags: 0
  m_CorrespondingSourceObject: {fileID: 0}
  m_PrefabInstance: {fileID: 0}
  m_PrefabAsset: {fileID: 0}
  m_GameObject: {fileID: 6859436800858771127}
  m_Enabled: 1
  m_EditorHideFlags: 0
  m_Script: {fileID: 11500000, guid: ae821a8a7ffe6e64a92d71b914245787, type: 3}
  m_Name: 
  m_EditorClassIdentifier: 
  _animator: {fileID: 4165830661538233836}
  Description: Get weaker whenever not used
  _damage: 10
  _damageText: {fileID: 3844201018803435962}
--- !u!1001 &7675756605812156457
PrefabInstance:
  m_ObjectHideFlags: 0
  serializedVersion: 2
  m_Modification:
    m_TransformParent: {fileID: 0}
    m_Modifications:
    - target: {fileID: 3869821997444195992, guid: 76dd056910b1af94b90d999a05619bc6,
        type: 3}
      propertyPath: m_Sprite
      value: 
      objectReference: {fileID: 21300000, guid: e79bf2f5aef140845b81f6b869957b90,
        type: 3}
    - target: {fileID: 3869821997444195998, guid: 76dd056910b1af94b90d999a05619bc6,
        type: 3}
      propertyPath: m_Name
      value: SwiftStrikeCard
      objectReference: {fileID: 0}
    - target: {fileID: 3869821997444195999, guid: 76dd056910b1af94b90d999a05619bc6,
        type: 3}
      propertyPath: m_LocalPosition.x
      value: 0
      objectReference: {fileID: 0}
    - target: {fileID: 3869821997444195999, guid: 76dd056910b1af94b90d999a05619bc6,
        type: 3}
      propertyPath: m_LocalPosition.y
      value: 0
      objectReference: {fileID: 0}
    - target: {fileID: 3869821997444195999, guid: 76dd056910b1af94b90d999a05619bc6,
        type: 3}
      propertyPath: m_LocalPosition.z
      value: 0
      objectReference: {fileID: 0}
    - target: {fileID: 3869821997444195999, guid: 76dd056910b1af94b90d999a05619bc6,
        type: 3}
      propertyPath: m_LocalRotation.x
      value: 0
      objectReference: {fileID: 0}
    - target: {fileID: 3869821997444195999, guid: 76dd056910b1af94b90d999a05619bc6,
        type: 3}
      propertyPath: m_LocalRotation.y
      value: 0
      objectReference: {fileID: 0}
    - target: {fileID: 3869821997444195999, guid: 76dd056910b1af94b90d999a05619bc6,
        type: 3}
      propertyPath: m_LocalRotation.z
      value: 0
      objectReference: {fileID: 0}
    - target: {fileID: 3869821997444195999, guid: 76dd056910b1af94b90d999a05619bc6,
        type: 3}
      propertyPath: m_LocalRotation.w
      value: 1
      objectReference: {fileID: 0}
    - target: {fileID: 3869821997444195999, guid: 76dd056910b1af94b90d999a05619bc6,
        type: 3}
      propertyPath: m_RootOrder
      value: 0
      objectReference: {fileID: 0}
    - target: {fileID: 3869821997444195999, guid: 76dd056910b1af94b90d999a05619bc6,
        type: 3}
      propertyPath: m_LocalEulerAnglesHint.x
      value: 0
      objectReference: {fileID: 0}
    - target: {fileID: 3869821997444195999, guid: 76dd056910b1af94b90d999a05619bc6,
        type: 3}
      propertyPath: m_LocalEulerAnglesHint.y
      value: 0
      objectReference: {fileID: 0}
    - target: {fileID: 3869821997444195999, guid: 76dd056910b1af94b90d999a05619bc6,
        type: 3}
      propertyPath: m_LocalEulerAnglesHint.z
      value: 0
      objectReference: {fileID: 0}
    - target: {fileID: 3869821997444195999, guid: 76dd056910b1af94b90d999a05619bc6,
        type: 3}
      propertyPath: m_AnchoredPosition.x
      value: 0
      objectReference: {fileID: 0}
    - target: {fileID: 3869821997444195999, guid: 76dd056910b1af94b90d999a05619bc6,
        type: 3}
      propertyPath: m_AnchoredPosition.y
      value: 0
      objectReference: {fileID: 0}
    - target: {fileID: 3869821997444195999, guid: 76dd056910b1af94b90d999a05619bc6,
        type: 3}
      propertyPath: m_SizeDelta.x
      value: 200
      objectReference: {fileID: 0}
    - target: {fileID: 3869821997444195999, guid: 76dd056910b1af94b90d999a05619bc6,
        type: 3}
      propertyPath: m_SizeDelta.y
      value: 250
      objectReference: {fileID: 0}
    - target: {fileID: 3869821997444195999, guid: 76dd056910b1af94b90d999a05619bc6,
        type: 3}
      propertyPath: m_AnchorMin.x
      value: 0.5
      objectReference: {fileID: 0}
    - target: {fileID: 3869821997444195999, guid: 76dd056910b1af94b90d999a05619bc6,
        type: 3}
      propertyPath: m_AnchorMin.y
      value: 0.5
      objectReference: {fileID: 0}
    - target: {fileID: 3869821997444195999, guid: 76dd056910b1af94b90d999a05619bc6,
        type: 3}
      propertyPath: m_AnchorMax.x
      value: 0.5
      objectReference: {fileID: 0}
    - target: {fileID: 3869821997444195999, guid: 76dd056910b1af94b90d999a05619bc6,
        type: 3}
      propertyPath: m_AnchorMax.y
      value: 0.5
      objectReference: {fileID: 0}
    - target: {fileID: 3869821997444195999, guid: 76dd056910b1af94b90d999a05619bc6,
        type: 3}
      propertyPath: m_Pivot.x
      value: 0.5
      objectReference: {fileID: 0}
    - target: {fileID: 3869821997444195999, guid: 76dd056910b1af94b90d999a05619bc6,
        type: 3}
      propertyPath: m_Pivot.y
      value: 0.5
      objectReference: {fileID: 0}
    - target: {fileID: 5541513068971542600, guid: 76dd056910b1af94b90d999a05619bc6,
        type: 3}
      propertyPath: Use.m_PersistentCalls.m_Calls.Array.data[0].m_Target
      value: 
      objectReference: {fileID: 2182923705062931731}
    - target: {fileID: 5541513068971542600, guid: 76dd056910b1af94b90d999a05619bc6,
        type: 3}
      propertyPath: Use.m_PersistentCalls.m_Calls.Array.data[0].m_MethodName
      value: PlayCard
      objectReference: {fileID: 0}
    - target: {fileID: 6496394083502117966, guid: 76dd056910b1af94b90d999a05619bc6,
        type: 3}
      propertyPath: m_AnchoredPosition.y
      value: -58.4
      objectReference: {fileID: 0}
    - target: {fileID: 6496394083502117966, guid: 76dd056910b1af94b90d999a05619bc6,
        type: 3}
      propertyPath: m_AnchoredPosition.x
      value: 12.2
      objectReference: {fileID: 0}
    - target: {fileID: 6496394083502117966, guid: 76dd056910b1af94b90d999a05619bc6,
        type: 3}
      propertyPath: m_SizeDelta.x
      value: 55.700012
      objectReference: {fileID: 0}
    - target: {fileID: 6496394083502117966, guid: 76dd056910b1af94b90d999a05619bc6,
        type: 3}
      propertyPath: m_SizeDelta.y
      value: 45.30333
      objectReference: {fileID: 0}
    - target: {fileID: 6769357982615921701, guid: 76dd056910b1af94b90d999a05619bc6,
        type: 3}
      propertyPath: _damage
      value: 10
      objectReference: {fileID: 0}
    - target: {fileID: 6827287380223004926, guid: 76dd056910b1af94b90d999a05619bc6,
        type: 3}
      propertyPath: m_textInfo.characterCount
      value: 12
      objectReference: {fileID: 0}
    - target: {fileID: 6827287380223004926, guid: 76dd056910b1af94b90d999a05619bc6,
        type: 3}
      propertyPath: m_textInfo.wordCount
      value: 2
      objectReference: {fileID: 0}
    - target: {fileID: 6827287380223004926, guid: 76dd056910b1af94b90d999a05619bc6,
        type: 3}
      propertyPath: m_textInfo.lineCount
      value: 1
      objectReference: {fileID: 0}
    - target: {fileID: 6827287380223004926, guid: 76dd056910b1af94b90d999a05619bc6,
        type: 3}
      propertyPath: m_textInfo.pageCount
      value: 1
      objectReference: {fileID: 0}
    - target: {fileID: 6827287380223004926, guid: 76dd056910b1af94b90d999a05619bc6,
        type: 3}
      propertyPath: m_text
      value: Swift Strike
      objectReference: {fileID: 0}
    - target: {fileID: 6827287380223004926, guid: 76dd056910b1af94b90d999a05619bc6,
        type: 3}
      propertyPath: m_fontSize
      value: 39.9
      objectReference: {fileID: 0}
    - target: {fileID: 6827287380223004926, guid: 76dd056910b1af94b90d999a05619bc6,
        type: 3}
      propertyPath: m_textInfo.spaceCount
      value: 1
      objectReference: {fileID: 0}
    - target: {fileID: 6907566913362301331, guid: 76dd056910b1af94b90d999a05619bc6,
        type: 3}
      propertyPath: m_textInfo.characterCount
      value: 1
      objectReference: {fileID: 0}
    - target: {fileID: 6907566913362301331, guid: 76dd056910b1af94b90d999a05619bc6,
        type: 3}
      propertyPath: m_textInfo.wordCount
      value: 1
      objectReference: {fileID: 0}
    - target: {fileID: 6907566913362301331, guid: 76dd056910b1af94b90d999a05619bc6,
        type: 3}
      propertyPath: m_textInfo.lineCount
      value: 1
      objectReference: {fileID: 0}
    - target: {fileID: 6907566913362301331, guid: 76dd056910b1af94b90d999a05619bc6,
        type: 3}
      propertyPath: m_textInfo.pageCount
      value: 1
      objectReference: {fileID: 0}
    - target: {fileID: 6907566913362301331, guid: 76dd056910b1af94b90d999a05619bc6,
        type: 3}
      propertyPath: m_text
      value: 5
      objectReference: {fileID: 0}
    - target: {fileID: 6907566913362301331, guid: 76dd056910b1af94b90d999a05619bc6,
        type: 3}
      propertyPath: m_textInfo.spaceCount
      value: 0
      objectReference: {fileID: 0}
    - target: {fileID: 6907566913362301331, guid: 76dd056910b1af94b90d999a05619bc6,
        type: 3}
      propertyPath: m_fontSize
      value: 38.5
      objectReference: {fileID: 0}
    - target: {fileID: 6907566913362301331, guid: 76dd056910b1af94b90d999a05619bc6,
        type: 3}
      propertyPath: m_fontColor.r
      value: 0.7843138
      objectReference: {fileID: 0}
    - target: {fileID: 6907566913362301331, guid: 76dd056910b1af94b90d999a05619bc6,
        type: 3}
      propertyPath: m_fontColor32.rgba
      value: 4294915016
      objectReference: {fileID: 0}
    m_RemovedComponents:
    - {fileID: 6769357982615921701, guid: 76dd056910b1af94b90d999a05619bc6, type: 3}
  m_SourcePrefab: {fileID: 100100000, guid: 76dd056910b1af94b90d999a05619bc6, type: 3}
--- !u!1 &6859436800858771127 stripped
GameObject:
  m_CorrespondingSourceObject: {fileID: 3869821997444195998, guid: 76dd056910b1af94b90d999a05619bc6,
    type: 3}
  m_PrefabInstance: {fileID: 7675756605812156457}
  m_PrefabAsset: {fileID: 0}
--- !u!95 &4165830661538233836 stripped
Animator:
  m_CorrespondingSourceObject: {fileID: 6004920208708343237, guid: 76dd056910b1af94b90d999a05619bc6,
    type: 3}
  m_PrefabInstance: {fileID: 7675756605812156457}
  m_PrefabAsset: {fileID: 0}
--- !u!114 &3844201018803435962 stripped
MonoBehaviour:
  m_CorrespondingSourceObject: {fileID: 6907566913362301331, guid: 76dd056910b1af94b90d999a05619bc6,
    type: 3}
  m_PrefabInstance: {fileID: 7675756605812156457}
  m_PrefabAsset: {fileID: 0}
  m_GameObject: {fileID: 0}
  m_Enabled: 1
  m_EditorHideFlags: 0
  m_Script: {fileID: 11500000, guid: f4688fdb7df04437aeb418b961361dc5, type: 3}
  m_Name: 
  m_EditorClassIdentifier: 
